miR IDs,tae_1,tae_2,tae_3,tae_4,tae_5,tae_6,tae_7,tae_8,tae_9,tae_10,tae_11,tae_12,tae_13,tae_14,tae_15,tae_16,tae_17,tae_18,tae_19,tae_20,tae_22,tae_23,tae_24,tae_25,tae_26,tae_27,tae_29,tae_30,tae_31,tae_32,tae_33,tae_34,tae_35,tae_36,tae_37,tae_38,tae_39,tae_40,tae_41,tae_42,tae_43,tae_44,tae_45,tae_46,tae_47,tae_48,tae_49
Wheat_SRR800157_Genericsample,0,0,0,2,2,389,0,23,4,0,0,73,1,0,18,7,25,0,6,56,14,0,12459,0,482,0,0,0,0,6,0,0,5,0,4,0,0,0,0,0,0,8,2,0,0,0,0
Wheat_SRR800158_Genericsample,0,0,1,3,3,235,2,40,6,0,0,101,0,0,2,0,4,2,1,24,0,0,23932,0,396,0,0,0,4,0,0,1,6,0,1,2,5,4,3,0,0,2,0,0,2,0,0
Wheat_SRR017199_Genericsample,15,0,0,2,0,0,0,0,360,0,0,3,0,0,2,28,9,2,3,11,0,0,176,0,1,0,2,6,1,0,3,0,1,0,0,0,0,0,17,1,0,16,2,5,0,5,0
Wheat_SRR057406_FlagleafNAM_RNAi,0,0,0,1,23,0,0,21,5,0,0,37,0,0,889,3,87,0,2,0,0,2,1879,0,12,1,19,24,2,0,0,16,3,0,29,3,9,30,4,0,0,3,0,0,0,1,0
Wheat_SRR101427_youngleafControl,0,0,0,0,0,0,0,0,0,0,0,1,0,0,0,2,0,0,0,0,0,0,2,0,0,0,0,0,0,0,0,0,0,0,0,0,0,0,0,0,0,0,0,0,0,0,0
Wheat_SRR101428_youngleafinfectionpowderymildew,9,0,7,5,45,57,0,52,13,1,0,368,3,1,186,368,251,1,1,2,1,6,3302,1,14,1,1,1,3,4,4,7,4,0,6,17,47,6,28,22,0,102,64,3,20,2,3
Wheat_SRR101429_youngleafControl,3,0,0,1,13,20,0,49,2,0,0,210,1,0,156,77,224,1,4,1,0,5,5192,1,3,0,1,0,2,1,0,5,5,0,10,10,19,6,0,27,0,27,17,0,3,0,0
Wheat_SRR101430_youngleafinfectionpowderymildew,7,0,3,2,18,47,0,35,4,1,0,374,1,0,139,225,298,0,0,0,1,6,3502,2,9,0,2,1,1,3,0,7,7,3,5,2,31,5,5,19,0,51,35,2,9,0,0
Wheat_SRR101431_youngleafControl,190,0,5,4,27,122,0,8,7,2,0,473,1,0,675,325,132,0,2,2,0,16,5929,237,11,1,3,3,2,17,2,11,4,0,3,0,39,19,0,97,0,451,559,8,38,3,2
Wheat_SRR101432_youngleafstress40Cheatstress,53,0,2,1,19,229,0,8,4,1,0,259,4,1,535,191,80,2,0,1,0,10,4227,176,6,0,4,3,1,18,2,12,7,2,6,3,43,7,1,65,0,214,302,2,23,0,8
Wheat_SRR203489_wholeplantparentBBAA,1,0,2,10,170,2,0,13,0,0,1,127,0,0,180,4258,11234,6,0,1,0,49,680,0,27,0,4,2,48,4,0,19,41,8,23,8,217,19,215,1,0,16,30,0,47,0,0
Wheat_SRR203490_wholeplantparentDD,75,0,1,1,17,4,0,14,4,0,0,36,0,0,0,44,0,0,0,0,0,49,9290,0,0,0,0,0,10,2,2,0,1,0,1,0,15,5,44,0,0,80,0,0,24,0,0
Wheat_SRR203491_wholeplantHybridBAD,14,1,2,6,104,2,0,11,0,0,0,69,0,0,352,3781,5469,0,0,0,0,70,6828,0,22,2,4,8,41,12,4,17,18,1,12,1,157,10,78,2,0,86,53,3,78,4,3
Wheat_SRR203492_wholeplantPolyploidBBAADD,4,0,1,10,4,13,0,17,4,0,0,82,1,0,151,1137,5642,1,0,0,0,3,8029,0,9,4,4,5,5,3,3,3,7,1,14,1,12,3,275,1,0,168,67,2,76,1,3
Wheat_SRR449364_spiketissuesControl,3,0,10,1,169,2,0,15,1,1,0,222,2,0,18756,328,3416,3,0,0,2,49,51181,0,2,1,0,4,33,9,2,101,56,6,25,8,155,57,0,1,0,29,28,0,32,2,1
Wheat_SRR449365_spiketissuesColdtreatment,1,0,1,1,37,0,0,7,0,0,2,38,0,0,3731,25,610,0,0,0,1,5,7609,0,0,0,0,1,5,1,0,23,13,1,6,2,18,6,0,0,0,2,3,0,0,1,0
Wheat_SRR449366_spiketissuesColdtreatment,1,0,7,4,196,2,0,20,0,1,1,236,0,0,21842,248,5286,3,0,0,0,34,50861,0,3,0,0,4,43,7,4,83,78,7,23,7,121,51,0,0,0,21,29,3,18,0,0
Wheat_SRR449367_spiketissuesColdtreatment,0,0,10,4,188,2,0,32,0,6,1,295,0,0,11741,346,1925,10,0,0,2,39,47261,0,1,2,2,1,22,11,2,96,78,8,28,11,154,60,0,1,0,26,36,0,21,2,0
Wheat_SRR449368_spiketissuesControl,0,1,6,2,126,1,0,13,0,1,0,158,0,0,9491,109,1444,1,0,0,4,21,35458,0,0,3,0,2,11,2,0,24,28,4,9,3,53,28,0,0,0,11,20,0,9,0,0
Wheat_SRR449369_spiketissuesControl,3,0,9,6,268,3,0,27,1,3,2,260,0,0,26108,341,3336,1,0,1,1,60,45797,0,9,2,0,3,24,14,1,105,71,8,26,11,183,59,0,1,0,28,33,1,23,0,0
Wheat_SRR449370_spiketissuesControl,0,1,7,4,202,3,0,15,0,2,0,232,0,0,34842,192,4455,4,0,0,1,50,44167,0,4,2,1,5,25,17,2,77,56,8,21,9,96,48,1,1,0,20,33,0,21,0,0
