miR_IDs,Zma_miR_Seq01,Zma_miR_Seq02,Zma_miR_Seq03,Zma_miR_Seq04,Zma_miR_Seq05,Zma_miR_Seq06,Zma_miR_Seq07a,Zma_miR_Seq08,Zma_miR_Seq09a,Zma_miR_Seq10,Zma_miR_Seq11,Zma_miR_Seq12,Zma_miR_Seq13,Zma_miR_Seq14,Zma_miR_Seq15
Maize_SRR899546_wholeplant_Control,2,0,0,1,6,2,6,38,18,0,1,22,11,5,22
Maize_SRR899547_wholeplantInoculatedHerbaspirillumseropedicae,7,6,5,6,5,30,33,120,87,5,5,15,130,0,93
Maize_SRR032090_seedlingB73,1,1,0,1,0,0,95,0,20,8,11,4,19,33,248
Maize_SRR032089_RootB73,0,0,2,1,0,0,74,0,174,3,2,5,9,11,267
Maize_SRR218319_roottipB73,0,0,0,0,0,0,115,0,0,0,0,10,0,17,113
Maize_SRR768485_15DaySeedlingroottipOptimalnitrate,8,3,3,0,2,0,30,3,524,3,0,5,11,19,114
Maize_SRR768487_15DaySeedlingroottipLownitrate,7,2,4,0,2,0,46,0,396,6,0,12,7,28,77
Maize_SRR488770_seedlingShootapexB73_11Day,4,0,0,0,2,1,1,0,1,3,0,2,0,2,21
Maize_SRR488771_seedlingShootapexMo17_11Day,3,1,1,0,5,0,1,0,2,0,2,3,0,0,45
Maize_SRR488772_seedlingShootapexB73xMo17_11Day,6,0,3,0,4,0,10,0,5,4,6,3,0,1,5
Maize_SRR488773_seedlingShootapexMo17xB73_11Day,7,3,2,0,6,1,6,0,0,1,3,3,0,0,5
Maize_SRR488774_seedlingShootapexB73_14Day,0,29,6,3,0,0,20413,0,32,9,10,21,13,8,219
Maize_SRR488775_seedlingshootapexMo17_14Day,1,81,7,6,2,0,8497,0,28,0,12,5,28,0,1035
Maize_SRR924283_SeedlingleafB73xW22_hen1_1mutant,3,20,4,0,1,0,2164,0,411,1,3,8,15,127,490
Maize_SRR924284_SeedlingleafB73_hen1_1mutant,3,150,5,1,0,2,4620,0,46,30,11,102,36,395,267
Maize_SRR034096_SeedlingleafB73,2,0,0,0,0,0,13,1,37,0,2,0,1,13,1636
Maize_SRR768489_15DaySeedlingleafLownitrate,1,1,5,1,3,0,32,1,332,2,0,9,24,64,2168
Maize_SRR768492_15DaySeedlingleafOptimalnitrate,3,0,2,0,1,4,9,21,21,6,0,10,67,33,1173
Maize_SRR488776_developingearB73HighN,0,15,1,1,3,2,8,0,1,1,0,9,0,0,13
Maize_SRR488777_developingearMo17HighN,5,20,0,1,3,0,13,0,1,0,0,2,0,0,16
Maize_SRR488778_developingearB73xMo17HighN,16,8,2,3,5,16,6,0,0,13,0,14,0,0,12
Maize_SRR488779_developingearB73LowN,8,11,0,12,0,20,23,0,1,11,0,22,0,0,28
Maize_SRR488780_developingearMo17LowN,13,14,3,1,1,0,9,0,1,0,0,3,0,0,7
Maize_SRR488781_developingearB73xMo17LowN,4,14,2,8,2,8,8,0,0,13,0,6,0,0,7
Maize_SRR408793_unfertilizedouterear,35,48,0,9,1,2,173,0,3,6,26,207,0,582,20846
Maize_SRR032087_ear,1,0,2,1,1,0,9,0,2,6,1,6,1,7,17
Maize_SRR034097_Femaleinflorescenceears_PoMS,1,0,1,0,3,1,0,0,1,0,1,0,0,2,51
Maize_SRR317192_anthers1MM,3,0,0,0,2,0,34,0,11,0,0,0,0,2,27
Maize_SRR317193_anthers1_5MM,0,0,2,0,4,0,10,0,14,0,0,0,0,2,17
Maize_SRR317194_anthers2MM,0,0,0,0,2,0,6,0,3,0,0,0,0,1,8
Maize_SRR032091_tassels,0,1,2,0,0,1,80,0,2,9,0,3,5,6,104
Maize_SRR034098_Maleinflorescencetassels_PrMS,1,0,2,0,2,1,11,0,1,4,1,0,2,3,20
Maize_SRR032088_pollen,0,1,1,0,0,0,123,0,14,0,0,0,4,6,6
Maize_SRR768249_invitrogerminatedpollens,0,0,1,0,0,0,625,0,4,0,0,0,3,0,0
Maize_SRR768250_maturesilks,1,2,0,3,0,0,272,0,4,0,7,1,2,12,287
Maize_SRR768251_pollinatedsilks,6,4,1,9,0,0,155,0,1,5,8,1,0,11,185
Maize_GSM958935_13run_5DOC_B73_smRNA_rep1,1,7,1,0,1,2,1087,10,91,4,18,16,123,11,209
Maize_SRR521124_5DOC_B73_smRNA_rep2,18,10,3,2,0,0,963,120,12,0,0,53,50,24,309
Maize_SRR521125_5DOC_B73_smRNA_rep3,24,0,4,5,0,0,337,34,7,0,0,24,26,3,148
Maize_SRR768248_maturepollen,0,0,0,0,0,0,134,0,6,0,0,0,0,1,0
Maize_GSM958938_13run_5DOC_Mo17_smRNA_rep1,3,5,3,2,4,0,910,7,67,0,8,1,22,0,210
Maize_SRR521139_5DOC_Mo17_smRNA_rep2,24,17,0,0,0,0,861,72,12,0,0,9,20,0,271
Maize_SRR521140_5DOC_Mo17_smRNA_rep3,19,17,0,4,0,0,751,75,5,0,0,13,11,0,421
